^C:\USERS\RILEY\SOURCE\REPOS\POINTERS\ASSIGNMENT 3 - POINTERS\ASSIGNMENT 3 - POINTERS\X64\DEBUG\MAIN.OBJ
C:\USERS\RILEY\SOURCE\REPOS\POINTERS\ASSIGNMENT 3 - POINTERS\X64\DEBUG\ASSIGNMENT 3 - POINTERS.EXE
C:\USERS\RILEY\SOURCE\REPOS\POINTERS\ASSIGNMENT 3 - POINTERS\X64\DEBUG\ASSIGNMENT 3 - POINTERS.ILK
C:\USERS\RILEY\SOURCE\REPOS\POINTERS\ASSIGNMENT 3 - POINTERS\X64\DEBUG\ASSIGNMENT 3 - POINTERS.PDB
